\relax 
\bbl@beforestart
\catcode `"\active 
\catcode `<\active 
\catcode `>\active 
\@nameuse{es@quoting}
\citation{Bastidas2013}
\citation{Hollock2010}
\citation{GartonJames2005}
\citation{Borrell2010}
\citation{Icestudio}
\citation{Foster2014}
\citation{Pennington1999}
\citation{Gnomesoftware2019}
\babel@aux{spanish}{}
\babel@aux{spanish}{}
\@writefile{toc}{\contentsline {section}{\numberline {I}Introducción}{1}\protected@file@percent }
\@writefile{toc}{\contentsline {section}{\numberline {II}Proceso de diseño e implementación de Sintel}{1}\protected@file@percent }
\citation{Automation2001}
\@writefile{toc}{\contentsline {subsection}{\numberline {\mbox  {II-A}}Front End}{2}\protected@file@percent }
\@writefile{lof}{\contentsline {figure}{\numberline {1}{\ignorespaces Densidad del apartado visual de simulación de Sintel [Fuente propia].}}{2}\protected@file@percent }
\newlabel{densidad}{{1}{2}}
\@writefile{toc}{\contentsline {subsection}{\numberline {\mbox  {II-B}}Back end}{2}\protected@file@percent }
\@writefile{toc}{\contentsline {subsubsection}{\numberline {\mbox  {II-B}1}Simulación con python}{2}\protected@file@percent }
\@writefile{lof}{\contentsline {figure}{\numberline {2}{\ignorespaces Simulación de componentes combinacionales [Fuente propia].}}{2}\protected@file@percent }
\newlabel{combi}{{2}{2}}
\@writefile{toc}{\contentsline {subsubsection}{\numberline {\mbox  {II-B}2}Simulación con iverilog}{2}\protected@file@percent }
\@writefile{lof}{\contentsline {figure}{\numberline {3}{\ignorespaces Simulación de componentes secuenciales [Fuente propia].}}{3}\protected@file@percent }
\newlabel{secu}{{3}{3}}
\@writefile{lof}{\contentsline {figure}{\numberline {4}{\ignorespaces Simulación con icarus verilog [Fuente propia].}}{3}\protected@file@percent }
\newlabel{sim_verilog}{{4}{3}}
\@writefile{toc}{\contentsline {section}{\numberline {III}Depurado de Sintel y resultados}{3}\protected@file@percent }
\@writefile{lof}{\contentsline {figure}{\numberline {5}{\ignorespaces Interfaz de simulación de Sintel [Fuente propia].}}{3}\protected@file@percent }
\newlabel{principal}{{5}{3}}
\@writefile{lof}{\contentsline {figure}{\numberline {6}{\ignorespaces Modos de conexión de Sintel [Fuente propia].}}{3}\protected@file@percent }
\newlabel{modos}{{6}{3}}
\citation{Patterson}
\citation{Hernandez2010}
\@writefile{lof}{\contentsline {figure}{\numberline {7}{\ignorespaces Encapsulación de componentes en Sintel [Fuente propia].}}{4}\protected@file@percent }
\newlabel{orden}{{7}{4}}
\@writefile{lof}{\contentsline {figure}{\numberline {8}{\ignorespaces Modelado del microprocesador MIPS en Sintel [Fuente propia].}}{4}\protected@file@percent }
\newlabel{microprocesador}{{8}{4}}
\@writefile{lof}{\contentsline {figure}{\numberline {9}{\ignorespaces Gráfica de los valores en Sintel cuando ocurre salto condicional [Fuente propia].}}{4}\protected@file@percent }
\newlabel{grafica_sintel2}{{9}{4}}
\@writefile{lof}{\contentsline {figure}{\numberline {10}{\ignorespaces Gráfica de los valores iniciales en Sintel [Fuente propia].}}{4}\protected@file@percent }
\newlabel{grafica_sintel}{{10}{4}}
\@writefile{lof}{\contentsline {figure}{\numberline {11}{\ignorespaces Gráfica de valores propagados en el tiempo [Fuente propia].}}{5}\protected@file@percent }
\newlabel{propagado}{{11}{5}}
\@writefile{lof}{\contentsline {figure}{\numberline {12}{\ignorespaces Gráfica de valores simulando el código HDL en GTKWave [Fuente propia].}}{5}\protected@file@percent }
\newlabel{gtkwave}{{12}{5}}
\@writefile{lof}{\contentsline {figure}{\numberline {13}{\ignorespaces Comparación entre ILA y Sintel [Fuente propia].}}{5}\protected@file@percent }
\newlabel{final}{{13}{5}}
\@writefile{toc}{\contentsline {section}{\numberline {IV}Conclusiones}{5}\protected@file@percent }
\bibstyle{IEEEtran}
\bibdata{Articulo.bib}
\bibcite{Bastidas2013}{1}
\bibcite{Hollock2010}{2}
\bibcite{GartonJames2005}{3}
\bibcite{Borrell2010}{4}
\bibcite{Icestudio}{5}
\bibcite{Foster2014}{6}
\bibcite{Pennington1999}{7}
\bibcite{Gnomesoftware2019}{8}
\bibcite{Automation2001}{9}
\bibcite{Patterson}{10}
\bibcite{Hernandez2010}{11}
\@writefile{toc}{\contentsline {section}{Referencias}{6}\protected@file@percent }
