\relax 
\bbl@beforestart
\catcode `"\active 
\catcode `<\active 
\catcode `>\active 
\@nameuse{es@quoting}
\bibstyle{IEEEtran}
\citation{Bastidas2013}
\citation{Hollock2010}
\citation{GartonJames2005}
\citation{Borrell2010}
\citation{Icestudio}
\babel@aux{spanish}{}
\babel@aux{spanish}{}
\@writefile{toc}{\contentsline {section}{\numberline {1}Introducci\'on}{213}\protected@file@percent }
\newlabel{sec:intro}{{1}{213}}
\citation{Foster2014}
\citation{Pennington1999}
\citation{Gnomesoftware2019}
\@writefile{toc}{\contentsline {section}{\numberline {2}Proceso de dise\~no e implementaci\'on de Sintel}{214}\protected@file@percent }
\@writefile{toc}{\contentsline {subsection}{\numberline {2.1}Front End}{214}\protected@file@percent }
\@writefile{lof}{\contentsline {figure}{\numberline {1}{\ignorespaces Densidad del apartado visual de simulaci\'on de Sintel [Fuente propia].\relax }}{215}\protected@file@percent }
\providecommand*\caption@xref[2]{\@setref\relax\@undefined{#1}}
\newlabel{densidad}{{1}{215}}
\@writefile{toc}{\contentsline {subsection}{\numberline {2.2}Back end}{215}\protected@file@percent }
\@writefile{toc}{\contentsline {subsubsection}{\numberline {2.2.1}Simulaci\'on con python}{215}\protected@file@percent }
\@writefile{lof}{\contentsline {figure}{\numberline {2}{\ignorespaces Simulaci\'on de componentes combinacionales [Fuente propia].\relax }}{215}\protected@file@percent }
\newlabel{combi}{{2}{215}}
\@writefile{lof}{\contentsline {figure}{\numberline {3}{\ignorespaces Simulaci\'on de componentes secuenciales [Fuente propia].\relax }}{215}\protected@file@percent }
\newlabel{secu}{{3}{215}}
\citation{Automation2001}
\@writefile{toc}{\contentsline {subsubsection}{\numberline {2.2.2}Simulaci\'on con iverilog}{216}\protected@file@percent }
\@writefile{lof}{\contentsline {figure}{\numberline {4}{\ignorespaces Simulaci\'on con icarus verilog [Fuente propia].\relax }}{216}\protected@file@percent }
\newlabel{sim_verilog}{{4}{216}}
\@writefile{toc}{\contentsline {section}{\numberline {3}Depurado de Sintel y resultados}{216}\protected@file@percent }
\@writefile{lof}{\contentsline {figure}{\numberline {5}{\ignorespaces Interfaz de simulaci\'on de Sintel [Fuente propia].\relax }}{216}\protected@file@percent }
\newlabel{principal}{{5}{216}}
\@writefile{lof}{\contentsline {figure}{\numberline {6}{\ignorespaces Modos de conexi\'on de Sintel [Fuente propia].\relax }}{216}\protected@file@percent }
\newlabel{modos}{{6}{216}}
\citation{Patterson}
\citation{Hernandez2010}
\@writefile{lof}{\contentsline {figure}{\numberline {7}{\ignorespaces Encapsulaci\'on de componentes en Sintel [Fuente propia].\relax }}{217}\protected@file@percent }
\newlabel{orden}{{7}{217}}
\@writefile{lof}{\contentsline {figure}{\numberline {8}{\ignorespaces Modelado del microprocesador MIPS en Sintel [Fuente propia].\relax }}{217}\protected@file@percent }
\newlabel{microprocesador}{{8}{217}}
\@writefile{lof}{\contentsline {figure}{\numberline {9}{\ignorespaces Gr\'afica de los valores iniciales en Sintel [Fuente propia].\relax }}{217}\protected@file@percent }
\newlabel{grafica_sintel}{{9}{217}}
\@writefile{lof}{\contentsline {figure}{\numberline {10}{\ignorespaces Gr\'afica de los valores en Sintel cuando ocurre salto condicional [Fuente propia].\relax }}{218}\protected@file@percent }
\newlabel{grafica_sintel2}{{10}{218}}
\@writefile{lof}{\contentsline {figure}{\numberline {11}{\ignorespaces Gr\'afica de valores propagados en el tiempo [Fuente propia].\relax }}{218}\protected@file@percent }
\newlabel{propagado}{{11}{218}}
\bibdata{Articulo.bib}
\bibcite{Bastidas2013}{{1}{}{{}}{{}}}
\bibcite{Hollock2010}{{2}{}{{}}{{}}}
\bibcite{GartonJames2005}{{3}{}{{}}{{}}}
\bibcite{Borrell2010}{{4}{}{{}}{{}}}
\bibcite{Icestudio}{{5}{}{{}}{{}}}
\bibcite{Foster2014}{{6}{}{{}}{{}}}
\bibcite{Pennington1999}{{7}{}{{}}{{}}}
\bibcite{Gnomesoftware2019}{{8}{}{{}}{{}}}
\bibcite{Automation2001}{{9}{}{{}}{{}}}
\bibcite{Patterson}{{10}{}{{}}{{}}}
\@writefile{lof}{\contentsline {figure}{\numberline {12}{\ignorespaces Gr\'afica de valores simulando el c\'odigo HDL en GTKWave [Fuente propia].\relax }}{219}\protected@file@percent }
\newlabel{gtkwave}{{12}{219}}
\@writefile{lof}{\contentsline {figure}{\numberline {13}{\ignorespaces Comparaci\'on entre ILA y Sintel [Fuente propia].\relax }}{219}\protected@file@percent }
\newlabel{final}{{13}{219}}
\@writefile{toc}{\contentsline {section}{\numberline {4}Conclusiones}{219}\protected@file@percent }
\@writefile{toc}{\contentsline {section}{\numberline {5}Referencias}{219}\protected@file@percent }
\bibcite{Hernandez2010}{{11}{}{{}}{{}}}
\providecommand\NAT@force@numbers{}\NAT@force@numbers
\newlabel{lastpage}{{4}{220}}
