\relax 
\providecommand\hyper@newdestlabel[2]{}
\bbl@beforestart
\catcode `"\active 
\catcode `<\active 
\catcode `>\active 
\@nameuse{es@quoting}
\providecommand\HyperFirstAtBeginDocument{\AtBeginDocument}
\HyperFirstAtBeginDocument{\ifx\hyper@anchor\@undefined
\global\let\oldcontentsline\contentsline
\gdef\contentsline#1#2#3#4{\oldcontentsline{#1}{#2}{#3}}
\global\let\oldnewlabel\newlabel
\gdef\newlabel#1#2{\newlabelxx{#1}#2}
\gdef\newlabelxx#1#2#3#4#5#6{\oldnewlabel{#1}{{#2}{#3}}}
\AtEndDocument{\ifx\hyper@anchor\@undefined
\let\contentsline\oldcontentsline
\let\newlabel\oldnewlabel
\fi}
\fi}
\global\let\hyper@last\relax 
\gdef\HyperFirstAtBeginDocument#1{#1}
\providecommand\HyField@AuxAddToFields[1]{}
\providecommand\HyField@AuxAddToCoFields[2]{}
\babel@aux{spanish}{}
\citation{Patterson}
\citation{ATMEL2013}
\citation{Patterson}
\citation{Chu2010}
\citation{Rhoads2013}
\citation{Chu}
\citation{Fernandez2014}
\citation{Patterson}
\citation{Chu}
\citation{Patterson}
\citation{Chu}
\citation{Manuel}
\citation{Delia2015}
\citation{FSF}
\citation{Fernandez2014}
\citation{GuillermoBosquePerez2015}
\citation{Hollock2010}
\@writefile{toc}{\contentsline {chapter}{\numberline {1}Introducción}{8}{chapter.1}\protected@file@percent }
\@writefile{lof}{\addvspace {10\p@ }}
\@writefile{lot}{\addvspace {10\p@ }}
\@writefile{toc}{\contentsline {section}{\numberline {1.1}Objetivos}{9}{section.1.1}\protected@file@percent }
\@writefile{toc}{\contentsline {subsection}{\numberline {1.1.1}Objetivo general}{9}{subsection.1.1.1}\protected@file@percent }
\@writefile{toc}{\contentsline {subsection}{\numberline {1.1.2}Objetivos específicos}{9}{subsection.1.1.2}\protected@file@percent }
\citation{nuevoFinal}
\citation{Leopoldo2010}
\citation{Ferdjallah2013}
\citation{nuevoFinal}
\citation{Patterson}
\@writefile{toc}{\contentsline {chapter}{\numberline {2}Marco conceptual}{10}{chapter.2}\protected@file@percent }
\@writefile{lof}{\addvspace {10\p@ }}
\@writefile{lot}{\addvspace {10\p@ }}
\@writefile{toc}{\contentsline {section}{\numberline {2.1}Sistema digital}{10}{section.2.1}\protected@file@percent }
\citation{Bucknall}
\citation{Patterson}
\citation{Sharma2006}
\citation{Bucknall}
\citation{Bucknall}
\@writefile{toc}{\contentsline {section}{\numberline {2.2}HDL}{11}{section.2.2}\protected@file@percent }
\@writefile{toc}{\contentsline {subsection}{\numberline {2.2.1}Verilog}{11}{subsection.2.2.1}\protected@file@percent }
\citation{Ferdjallah2013}
\citation{Ferdjallah2013}
\citation{AMD1993}
\citation{Patterson}
\citation{Patterson}
\@writefile{toc}{\contentsline {subsection}{\numberline {2.2.2}VHDL}{12}{subsection.2.2.2}\protected@file@percent }
\@writefile{toc}{\contentsline {section}{\numberline {2.3}Máquinas de estados finitos}{12}{section.2.3}\protected@file@percent }
\citation{SainzCatedratico2000}
\citation{Martin-Del-Brio1999}
\citation{Rivamar2014}
\citation{Tokheim}
\@writefile{lof}{\contentsline {figure}{\numberline {2.1}{\ignorespaces Esquemas de \textit  {FSM} tipo \textit  {Moore}(a) y \textit  {Mealy}(b) [Tomado de \cite  {Patterson}].}}{13}{figure.2.1}\protected@file@percent }
\newlabel{MealyMoore}{{2.1}{13}{Esquemas de \textit {FSM} tipo \textit {Moore}(a) y \textit {Mealy}(b) [Tomado de \cite {Patterson}]}{figure.2.1}{}}
\@writefile{toc}{\contentsline {section}{\numberline {2.4}Microprocesador}{13}{section.2.4}\protected@file@percent }
\citation{George1990}
\@writefile{toc}{\contentsline {subsection}{\numberline {2.4.1}CISC}{14}{subsection.2.4.1}\protected@file@percent }
\citation{Jamil1995}
\citation{George1990}
\citation{Guerrero2010}
\citation{Tasama2008}
\citation{ATMEL2013}
\@writefile{toc}{\contentsline {subsection}{\numberline {2.4.2}RISC}{15}{subsection.2.4.2}\protected@file@percent }
\citation{Hernandez2010}
\citation{Patterson}
\citation{Hernandez2010}
\@writefile{toc}{\contentsline {subsubsection}{Atmel AVR}{16}{section*.6}\protected@file@percent }
\@writefile{lof}{\contentsline {figure}{\numberline {2.2}{\ignorespaces Arquitectura de la \textit  {CPU} del \textit  {Atmel} \textit  {AVR} [Tomado de \cite  {ATMEL2013}].}}{16}{figure.2.2}\protected@file@percent }
\newlabel{AVR_CPU}{{2.2}{16}{Arquitectura de la \textit {CPU} del \textit {Atmel} \textit {AVR} [Tomado de \cite {ATMEL2013}]}{figure.2.2}{}}
\citation{Chu2010}
\citation{Chu2010}
\@writefile{toc}{\contentsline {subsubsection}{MIPS}{17}{section*.7}\protected@file@percent }
\@writefile{lof}{\contentsline {figure}{\numberline {2.3}{\ignorespaces Arquitectura del \textit  {CPU} del \textit  {MIPS} [Tomado de \cite  {Patterson}].}}{17}{figure.2.3}\protected@file@percent }
\newlabel{MIPS_arch}{{2.3}{17}{Arquitectura del \textit {CPU} del \textit {MIPS} [Tomado de \cite {Patterson}]}{figure.2.3}{}}
\@writefile{toc}{\contentsline {section}{\numberline {2.5}FPGA}{18}{section.2.5}\protected@file@percent }
\@writefile{lof}{\contentsline {figure}{\numberline {2.4}{\ignorespaces Flujo de desarrollo en un \textit  {FPGA} [Tomado de \cite  {Chu2010}].}}{18}{figure.2.4}\protected@file@percent }
\newlabel{IMAGENFLOW}{{2.4}{18}{Flujo de desarrollo en un \textit {FPGA} [Tomado de \cite {Chu2010}]}{figure.2.4}{}}
\citation{Foster2014}
\citation{Gnomesoftware2019}
\@writefile{toc}{\contentsline {chapter}{\numberline {3}Desarrollo e implementación}{20}{chapter.3}\protected@file@percent }
\@writefile{lof}{\addvspace {10\p@ }}
\@writefile{lot}{\addvspace {10\p@ }}
\@writefile{toc}{\contentsline {section}{\numberline {3.1}Desarrollo del software}{20}{section.3.1}\protected@file@percent }
\@writefile{toc}{\contentsline {subsection}{\numberline {3.1.1}Conceptos iniciales}{20}{subsection.3.1.1}\protected@file@percent }
\@writefile{toc}{\contentsline {subsection}{\numberline {3.1.2}Construcción de la interfaz gráfica}{21}{subsection.3.1.2}\protected@file@percent }
\@writefile{lof}{\contentsline {figure}{\numberline {3.1}{\ignorespaces Interfaz de inicio de Sintel [Fuente propia].}}{22}{figure.3.1}\protected@file@percent }
\newlabel{gr_inicio}{{3.1}{22}{Interfaz de inicio de Sintel [Fuente propia]}{figure.3.1}{}}
\@writefile{lof}{\contentsline {figure}{\numberline {3.2}{\ignorespaces Interfaz de configuración de Sintel [Fuente propia].}}{23}{figure.3.2}\protected@file@percent }
\newlabel{gr_config}{{3.2}{23}{Interfaz de configuración de Sintel [Fuente propia]}{figure.3.2}{}}
\@writefile{lof}{\contentsline {figure}{\numberline {3.3}{\ignorespaces Interfaz de simulación de Sintel [Fuente propia].}}{24}{figure.3.3}\protected@file@percent }
\newlabel{gr_simulacion}{{3.3}{24}{Interfaz de simulación de Sintel [Fuente propia]}{figure.3.3}{}}
\@writefile{lof}{\contentsline {figure}{\numberline {3.4}{\ignorespaces Interfaz de adición y edición de componentes de Sintel [Fuente propia].}}{25}{figure.3.4}\protected@file@percent }
\newlabel{gr_add}{{3.4}{25}{Interfaz de adición y edición de componentes de Sintel [Fuente propia]}{figure.3.4}{}}
\@writefile{lof}{\contentsline {figure}{\numberline {3.5}{\ignorespaces Interfaz de máquinas de estados de Sintel [Fuente propia].}}{26}{figure.3.5}\protected@file@percent }
\newlabel{gr_maquinas}{{3.5}{26}{Interfaz de máquinas de estados de Sintel [Fuente propia]}{figure.3.5}{}}
\@writefile{toc}{\contentsline {subsection}{\numberline {3.1.3}Características adicionales}{26}{subsection.3.1.3}\protected@file@percent }
\@writefile{lof}{\contentsline {figure}{\numberline {3.6}{\ignorespaces Modos de conexión de componentes en Sintel [Fuente propia].}}{27}{figure.3.6}\protected@file@percent }
\newlabel{modos}{{3.6}{27}{Modos de conexión de componentes en Sintel [Fuente propia]}{figure.3.6}{}}
\@writefile{lof}{\contentsline {figure}{\numberline {3.7}{\ignorespaces Ejemplo de encapsulación en Sintel [Fuente propia].}}{27}{figure.3.7}\protected@file@percent }
\newlabel{orden}{{3.7}{27}{Ejemplo de encapsulación en Sintel [Fuente propia]}{figure.3.7}{}}
\@writefile{toc}{\contentsline {subsection}{\numberline {3.1.4}Componentes}{27}{subsection.3.1.4}\protected@file@percent }
\@writefile{toc}{\contentsline {subsection}{\numberline {3.1.5}Simulación}{30}{subsection.3.1.5}\protected@file@percent }
\@writefile{lof}{\contentsline {figure}{\numberline {3.8}{\ignorespaces Esquema de simulación general [Fuente propia].}}{30}{figure.3.8}\protected@file@percent }
\newlabel{sim1}{{3.8}{30}{Esquema de simulación general [Fuente propia]}{figure.3.8}{}}
\@writefile{toc}{\contentsline {subsubsection}{Python}{31}{section*.8}\protected@file@percent }
\@writefile{lof}{\contentsline {figure}{\numberline {3.9}{\ignorespaces Esquema de simulación de componentes combinacionales en \textit  {python} [Fuente propia].}}{31}{figure.3.9}\protected@file@percent }
\newlabel{combi}{{3.9}{31}{Esquema de simulación de componentes combinacionales en \textit {python} [Fuente propia]}{figure.3.9}{}}
\citation{Williams2008}
\citation{Automation2001}
\@writefile{toc}{\contentsline {subsubsection}{Icarus verilog (iverilog)}{33}{section*.9}\protected@file@percent }
\@writefile{lof}{\contentsline {figure}{\numberline {3.10}{\ignorespaces Esquema de simulación en \textit  {icarus verilog} [Fuente propia].}}{33}{figure.3.10}\protected@file@percent }
\newlabel{simVerilog}{{3.10}{33}{Esquema de simulación en \textit {icarus verilog} [Fuente propia]}{figure.3.10}{}}
\citation{Palnitkar2003a}
\citation{Perry2002a}
\citation{Patterson}
\citation{Rhoads2013}
\@writefile{toc}{\contentsline {subsection}{\numberline {3.1.6}Documentación}{34}{subsection.3.1.6}\protected@file@percent }
\@writefile{toc}{\contentsline {section}{\numberline {3.2}Microprocesador}{35}{section.3.2}\protected@file@percent }
\@writefile{lot}{\contentsline {table}{\numberline {3.1}{\ignorespaces Lista de códigos de operación [Tomada de \cite  {Rhoads2013}].}}{35}{table.3.1}\protected@file@percent }
\newlabel{opcodes}{{3.1}{35}{Lista de códigos de operación [Tomada de \cite {Rhoads2013}]}{table.3.1}{}}
\@writefile{toc}{\contentsline {chapter}{\numberline {4}Resultados y análisis}{36}{chapter.4}\protected@file@percent }
\@writefile{lof}{\addvspace {10\p@ }}
\@writefile{lot}{\addvspace {10\p@ }}
\@writefile{toc}{\contentsline {section}{\numberline {4.1}Simulador}{36}{section.4.1}\protected@file@percent }
\@writefile{lof}{\contentsline {figure}{\numberline {4.1}{\ignorespaces Interfaz de simulación de Sintel [Fuente propia].}}{38}{figure.4.1}\protected@file@percent }
\newlabel{app_final}{{4.1}{38}{Interfaz de simulación de Sintel [Fuente propia]}{figure.4.1}{}}
\@writefile{toc}{\contentsline {section}{\numberline {4.2}Microprocesador}{39}{section.4.2}\protected@file@percent }
\@writefile{toc}{\contentsline {subsection}{\numberline {4.2.1}Construcción de los módulos}{39}{subsection.4.2.1}\protected@file@percent }
\@writefile{toc}{\contentsline {subsubsection}{ALU}{39}{section*.10}\protected@file@percent }
\@writefile{lof}{\contentsline {figure}{\numberline {4.2}{\ignorespaces Esquema de la unidad aritmético lógica [Fuente propia].}}{39}{figure.4.2}\protected@file@percent }
\newlabel{ALU_full}{{4.2}{39}{Esquema de la unidad aritmético lógica [Fuente propia]}{figure.4.2}{}}
\@writefile{toc}{\contentsline {subsubsection}{Contador de programa}{40}{section*.11}\protected@file@percent }
\@writefile{lof}{\contentsline {figure}{\numberline {4.3}{\ignorespaces Contador del programa [Fuente propia].}}{40}{figure.4.3}\protected@file@percent }
\newlabel{pc}{{4.3}{40}{Contador del programa [Fuente propia]}{figure.4.3}{}}
\@writefile{toc}{\contentsline {subsubsection}{Banco de registros, memoria de instrucciones y memoria de datos}{40}{section*.12}\protected@file@percent }
\@writefile{toc}{\contentsline {subsubsection}{Unidad de control}{41}{section*.13}\protected@file@percent }
\@writefile{toc}{\contentsline {subsection}{\numberline {4.2.2}Conexión de los módulos}{41}{subsection.4.2.2}\protected@file@percent }
\@writefile{lof}{\contentsline {figure}{\numberline {4.4}{\ignorespaces Esquema completo del microprocesador [Fuente propia].}}{42}{figure.4.4}\protected@file@percent }
\newlabel{microfinal}{{4.4}{42}{Esquema completo del microprocesador [Fuente propia]}{figure.4.4}{}}
\@writefile{toc}{\contentsline {subsection}{\numberline {4.2.3}Pruebas al microprocesador}{43}{subsection.4.2.3}\protected@file@percent }
\@writefile{lof}{\contentsline {figure}{\numberline {4.5}{\ignorespaces Diagrama de flujo del \textit  {firmware} que ejecuta el microprocesador [Fuente propia].}}{43}{figure.4.5}\protected@file@percent }
\newlabel{code_micro}{{4.5}{43}{Diagrama de flujo del \textit {firmware} que ejecuta el microprocesador [Fuente propia]}{figure.4.5}{}}
\@writefile{lof}{\contentsline {figure}{\numberline {4.6}{\ignorespaces Gráfica de los valores iniciales en Sintel [Fuente propia].}}{44}{figure.4.6}\protected@file@percent }
\newlabel{grafica_sintel}{{4.6}{44}{Gráfica de los valores iniciales en Sintel [Fuente propia]}{figure.4.6}{}}
\@writefile{lof}{\contentsline {figure}{\numberline {4.7}{\ignorespaces Gráfica de los valores en Sintel cuando ocurre salto condicional [Fuente propia].}}{44}{figure.4.7}\protected@file@percent }
\newlabel{grafica_sintel2}{{4.7}{44}{Gráfica de los valores en Sintel cuando ocurre salto condicional [Fuente propia]}{figure.4.7}{}}
\@writefile{lof}{\contentsline {figure}{\numberline {4.8}{\ignorespaces Gráfica de valores propagados en el tiempo [Fuente propia].}}{46}{figure.4.8}\protected@file@percent }
\newlabel{propagado}{{4.8}{46}{Gráfica de valores propagados en el tiempo [Fuente propia]}{figure.4.8}{}}
\@writefile{toc}{\contentsline {subsubsection}{Análisis de código HDL}{46}{section*.14}\protected@file@percent }
\@writefile{lof}{\contentsline {figure}{\numberline {4.9}{\ignorespaces Gráfica de valores simulando el código HDL en GTKWave [Fuente propia].}}{47}{figure.4.9}\protected@file@percent }
\newlabel{gtkwave}{{4.9}{47}{Gráfica de valores simulando el código HDL en GTKWave [Fuente propia]}{figure.4.9}{}}
\@writefile{lof}{\contentsline {figure}{\numberline {4.10}{\ignorespaces Comparación entre ILA y Sintel [Fuente propia].}}{47}{figure.4.10}\protected@file@percent }
\newlabel{final}{{4.10}{47}{Comparación entre ILA y Sintel [Fuente propia]}{figure.4.10}{}}
\@writefile{toc}{\contentsline {chapter}{\numberline {5}Conclusiones y trabajos futuros}{48}{chapter.5}\protected@file@percent }
\@writefile{lof}{\addvspace {10\p@ }}
\@writefile{lot}{\addvspace {10\p@ }}
\@writefile{toc}{\contentsline {section}{\numberline {5.1}Conclusiones}{48}{section.5.1}\protected@file@percent }
\@writefile{toc}{\contentsline {section}{\numberline {5.2}Trabajos futuros}{49}{section.5.2}\protected@file@percent }
\bibstyle{IEEEtran}
\bibdata{/home/ciro/Documents/Bibliografias/Mendeley/InformeFinal.bib}
\bibcite{Patterson}{1}
\bibcite{ATMEL2013}{2}
\bibcite{Chu2010}{3}
\bibcite{Rhoads2013}{4}
\bibcite{Chu}{5}
\bibcite{Fernandez2014}{6}
\bibcite{Manuel}{7}
\bibcite{Delia2015}{8}
\bibcite{FSF}{9}
\bibcite{GuillermoBosquePerez2015}{10}
\bibcite{Hollock2010}{11}
\bibcite{nuevoFinal}{12}
\bibcite{Leopoldo2010}{13}
\bibcite{Ferdjallah2013}{14}
\bibcite{Bucknall}{15}
\bibcite{Sharma2006}{16}
\bibcite{AMD1993}{17}
\bibcite{SainzCatedratico2000}{18}
\bibcite{Martin-Del-Brio1999}{19}
\bibcite{Rivamar2014}{20}
\bibcite{Tokheim}{21}
\bibcite{George1990}{22}
\bibcite{Jamil1995}{23}
\bibcite{Guerrero2010}{24}
\bibcite{Tasama2008}{25}
\bibcite{Hernandez2010}{26}
\bibcite{Foster2014}{27}
\bibcite{Gnomesoftware2019}{28}
\bibcite{Williams2008}{29}
\bibcite{Automation2001}{30}
\bibcite{Palnitkar2003a}{31}
\bibcite{Perry2002a}{32}
