<?xml version="1.0" encoding="UTF-8" standalone="no"?>
<!-- Created with Inkscape (http://www.inkscape.org/) -->

<svg
   xmlns:dc="http://purl.org/dc/elements/1.1/"
   xmlns:cc="http://creativecommons.org/ns#"
   xmlns:rdf="http://www.w3.org/1999/02/22-rdf-syntax-ns#"
   xmlns:svg="http://www.w3.org/2000/svg"
   xmlns="http://www.w3.org/2000/svg"
   xmlns:sodipodi="http://sodipodi.sourceforge.net/DTD/sodipodi-0.dtd"
   xmlns:inkscape="http://www.inkscape.org/namespaces/inkscape"
   width="48"
   height="48"
   viewBox="0 0 12.7 12.7"
   version="1.1"
   id="svg8"
   inkscape:version="0.92.4 5da689c313, 2019-01-14"
   sodipodi:docname="sintel.svg"
   inkscape:export-filename="/home/ciro/Documents/programacion/python/Sintel/sintel/simulador/images/sintel.png"
   inkscape:export-xdpi="360"
   inkscape:export-ydpi="360">
  <defs
     id="defs2" />
  <sodipodi:namedview
     id="base"
     pagecolor="#ffffff"
     bordercolor="#666666"
     borderopacity="0.25098039"
     inkscape:pageopacity="0.0"
     inkscape:pageshadow="2"
     inkscape:zoom="5.6568542"
     inkscape:cx="-6.8968445"
     inkscape:cy="18.252589"
     inkscape:document-units="px"
     inkscape:current-layer="g823"
     showgrid="false"
     showborder="true"
     inkscape:window-width="1366"
     inkscape:window-height="688"
     inkscape:window-x="0"
     inkscape:window-y="0"
     inkscape:window-maximized="1"
     fit-margin-top="0"
     fit-margin-left="0"
     fit-margin-right="0"
     fit-margin-bottom="0"
     units="px"
     inkscape:showpageshadow="false" />
  <metadata
     id="metadata5">
    <rdf:RDF>
      <cc:Work
         rdf:about="">
        <dc:format>image/svg+xml</dc:format>
        <dc:type
           rdf:resource="http://purl.org/dc/dcmitype/StillImage" />
        <dc:title />
      </cc:Work>
    </rdf:RDF>
  </metadata>
  <g
     inkscape:label="Capa 1"
     inkscape:groupmode="layer"
     id="layer1"
     transform="translate(-98.720241,-142.15)">
    <g
       id="g823"
       inkscape:export-xdpi="364.03"
       inkscape:export-ydpi="364.03">
      <g
         aria-label="S"
         transform="rotate(15,-1.3529615e-6,-1.0276763e-5)"
         style="font-style:italic;font-variant:normal;font-weight:normal;font-stretch:normal;font-size:15.71939468px;line-height:1.25;font-family:Roboto;-inkscape-font-specification:'Roboto Italic';letter-spacing:0px;word-spacing:0px;fill:#262626;fill-opacity:1;stroke:none;stroke-width:0.0785963"
         id="text929">
        <path
           d="m 139.75302,121.75806 q -0.73881,0 -1.76057,-0.26723 -1.00604,-0.26723 -1.57194,-0.61306 l 0.70737,-1.91777 q 0.50302,0.26723 1.24183,0.50302 0.75453,0.22008 1.33615,0.22008 0.78597,0 1.2104,-0.26723 0.42442,-0.28295 0.42442,-0.73882 0,-0.29866 -0.33011,-0.55017 -0.31439,-0.25152 -1.03748,-0.67594 -0.15719,-0.0786 -0.47158,-0.26723 -1.06892,-0.64449 -1.68198,-1.06892 -0.59733,-0.42442 -1.06891,-1.06892 -0.45587,-0.64449 -0.45587,-1.44618 0.0157,-0.84885 0.47159,-1.50906 0.47158,-0.67594 1.33614,-1.0532 0.86457,-0.39299 2.02781,-0.39299 0.78597,0 1.61909,0.23579 0.83313,0.22008 1.46191,0.59734 l -0.75453,1.79201 q -0.75453,-0.31439 -1.24184,-0.44014 -0.4873,-0.12576 -1.0532,-0.12576 -0.58161,0 -0.95888,0.25151 -0.36154,0.2358 -0.36154,0.66022 0,0.34583 0.29866,0.61306 0.31439,0.25151 0.99033,0.61305 0.25151,0.11004 0.51874,0.28295 1.13179,0.66022 1.72913,1.08464 0.59734,0.4087 1.0532,1.0532 0.45586,0.62877 0.45586,1.44618 0,0.88029 -0.50302,1.57194 -0.4873,0.69166 -1.43046,1.08464 -0.92745,0.39299 -2.20072,0.39299 z"
           style="font-style:normal;font-variant:normal;font-weight:800;font-stretch:normal;font-family:Mosk;-inkscape-font-specification:'Mosk Ultra-Bold';fill:#262626;fill-opacity:1;stroke-width:0.0785963"
           id="path1525"
           inkscape:connector-curvature="0" />
      </g>
      <path
         style="opacity:1;fill:#ffffff;fill-opacity:1;stroke:#009c4a;stroke-width:0.785963;stroke-linecap:butt;stroke-linejoin:round;stroke-miterlimit:5.19999981;stroke-dasharray:none;stroke-dashoffset:0;stroke-opacity:0.98039216;paint-order:markers fill stroke"
         d="m 110.90873,146.30982 a 1.4245369,1.4245369 0 0 1 -1.74469,1.0073 1.4245369,1.4245369 0 0 1 -1.0073,-1.74469 1.4245369,1.4245369 0 0 1 1.7447,-1.00731 1.4245369,1.4245369 0 0 1 1.00729,1.7447 z"
         id="circle931"
         inkscape:connector-curvature="0" />
      <path
         style="opacity:1;fill:#ffffff;fill-opacity:1;stroke:#0099c9;stroke-width:0.785963;stroke-linecap:butt;stroke-linejoin:round;stroke-miterlimit:5.19999981;stroke-dasharray:none;stroke-dashoffset:0;stroke-opacity:0.98039216;paint-order:markers fill stroke"
         d="m 101.98374,151.49803 a 1.4245369,1.4245369 0 0 1 -1.74469,1.0073 1.4245369,1.4245369 0 0 1 -1.007305,-1.7447 1.4245369,1.4245369 0 0 1 1.744695,-1.0073 1.4245369,1.4245369 0 0 1 1.0073,1.7447 z"
         id="circle933"
         inkscape:connector-curvature="0" />
    </g>
  </g>
</svg>
