\relax 
\providecommand\hyper@newdestlabel[2]{}
\bbl@beforestart
\catcode `"\active 
\catcode `<\active 
\catcode `>\active 
\@nameuse{es@quoting}
\providecommand\HyperFirstAtBeginDocument{\AtBeginDocument}
\HyperFirstAtBeginDocument{\ifx\hyper@anchor\@undefined
\global\let\oldcontentsline\contentsline
\gdef\contentsline#1#2#3#4{\oldcontentsline{#1}{#2}{#3}}
\global\let\oldnewlabel\newlabel
\gdef\newlabel#1#2{\newlabelxx{#1}#2}
\gdef\newlabelxx#1#2#3#4#5#6{\oldnewlabel{#1}{{#2}{#3}}}
\AtEndDocument{\ifx\hyper@anchor\@undefined
\let\contentsline\oldcontentsline
\let\newlabel\oldnewlabel
\fi}
\fi}
\global\let\hyper@last\relax 
\gdef\HyperFirstAtBeginDocument#1{#1}
\providecommand\HyField@AuxAddToFields[1]{}
\providecommand\HyField@AuxAddToCoFields[2]{}
\citation{SainzCatedratico2000}
\citation{Martin-Del-Brio1999}
\babel@aux{spanish}{}
\@writefile{toc}{\contentsline {section}{\numberline {I}Introduction}{1}{section.1}\protected@file@percent }
\@writefile{toc}{\contentsline {section}{\numberline {II}Marco teórico y trabajos relacionados}{1}{section.2}\protected@file@percent }
\@writefile{toc}{\contentsline {subsection}{\numberline {\mbox  {II-A}}Sistemas digitales}{1}{subsection.2.1}\protected@file@percent }
\@writefile{toc}{\contentsline {subsection}{\numberline {\mbox  {II-B}}Microprocesador}{1}{subsection.2.2}\protected@file@percent }
\citation{Jamil1995}
\citation{George1990}
\citation{George1990}
\citation{Bucknall}
\citation{Patterson}
\@writefile{toc}{\contentsline {subsubsection}{\numberline {\mbox  {II-B}1}RISC}{2}{subsubsection.2.2.1}\protected@file@percent }
\@writefile{toc}{\contentsline {subsubsection}{\numberline {\mbox  {II-B}2}CISC}{2}{subsubsection.2.2.2}\protected@file@percent }
\@writefile{toc}{\contentsline {subsection}{\numberline {\mbox  {II-C}}HDL}{2}{subsection.2.3}\protected@file@percent }
\@writefile{toc}{\contentsline {section}{\numberline {III}Proceso de diseño e implementación de Sintel}{2}{section.3}\protected@file@percent }
\@writefile{toc}{\contentsline {subsection}{\numberline {\mbox  {III-A}}Simulación con python}{2}{subsection.3.1}\protected@file@percent }
\@writefile{lof}{\contentsline {figure}{\numberline {1}{\ignorespaces Simulación de componentes combinacionales [Fuente propia].}}{3}{figure.1}\protected@file@percent }
\newlabel{combi}{{1}{3}{Simulación de componentes combinacionales [Fuente propia]}{figure.1}{}}
\@writefile{toc}{\contentsline {subsection}{\numberline {\mbox  {III-B}}Simulación con iverilog}{3}{subsection.3.2}\protected@file@percent }
\@writefile{toc}{\contentsline {section}{\numberline {IV}Depurado de Sintel}{3}{section.4}\protected@file@percent }
\@writefile{lof}{\contentsline {figure}{\numberline {2}{\ignorespaces Simulación de componentes secuenciales [Fuente propia].}}{3}{figure.2}\protected@file@percent }
\newlabel{secu}{{2}{3}{Simulación de componentes secuenciales [Fuente propia]}{figure.2}{}}
\@writefile{toc}{\contentsline {section}{\numberline {V}Resultados}{3}{section.5}\protected@file@percent }
\@writefile{lof}{\contentsline {figure}{\numberline {3}{\ignorespaces Simulación con \textit  {icarus verilog} [Fuente propia].}}{4}{figure.3}\protected@file@percent }
\newlabel{sim_verilog}{{3}{4}{Simulación con \textit {icarus verilog} [Fuente propia]}{figure.3}{}}
