This is BibTeX, Version 0.99d (TeX Live 2019/Arch Linux)
Capacity: max_strings=100000, hash_size=100000, hash_prime=85009
The top-level auxiliary file: Anteproyecto.aux
The style file: IEEEtran.bst
Reallocated singl_function (elt_size=8) to 100 items from 50.
Reallocated singl_function (elt_size=8) to 100 items from 50.
Reallocated singl_function (elt_size=8) to 100 items from 50.
Reallocated wiz_functions (elt_size=8) to 6000 items from 3000.
Reallocated singl_function (elt_size=8) to 100 items from 50.
Database file #1: /home/ciro/Documents/Bibliografias/Mendeley/AnteproyectoGrado.bib
-- IEEEtran.bst version 1.14 (2015/08/26) by Michael Shell.
-- http://www.michaelshell.org/tex/ieeetran/bibtex/
-- See the "IEEEtran_bst_HOWTO.pdf" manual for usage information.
Warning--missing publisher in Editor-in-Chief
Warning--empty journal in Palnitkar2003
Warning--missing publisher in Perry2002
Warning--missing publisher in nuevoFinal
Warning--empty journal in Leopoldo2010
Warning--missing institution in Martin-Del-Brio1999
Warning--missing institution in SainzCatedratico2000
Warning--missing publisher in Castano2001
Warning--missing institution in Gonzalez
Warning--empty year in Gonzalez
Warning--missing publisher in Maxinez
Warning--missing publisher in Chu2010
Warning--missing institution in FundacionUniversitariaCatolicadelNorte.2007

Done.
You've used 21 entries,
            4087 wiz_defined-function locations,
            947 strings with 10399 characters,
and the built_in function-call counts, 8911 in all, are:
= -- 700
> -- 127
< -- 25
+ -- 63
- -- 27
* -- 385
:= -- 1611
add.period$ -- 36
call.type$ -- 21
change.case$ -- 17
chr.to.int$ -- 45
cite$ -- 34
duplicate$ -- 706
empty$ -- 835
format.name$ -- 30
if$ -- 1962
int.to.chr$ -- 0
int.to.str$ -- 21
missing$ -- 148
newline$ -- 106
num.names$ -- 22
pop$ -- 384
preamble$ -- 1
purify$ -- 0
quote$ -- 2
skip$ -- 709
stack$ -- 0
substring$ -- 121
swap$ -- 453
text.length$ -- 10
text.prefix$ -- 0
top$ -- 5
type$ -- 21
warning$ -- 13
while$ -- 34
width$ -- 23
write$ -- 214
(There were 13 warnings)
