\relax 
\providecommand\hyper@newdestlabel[2]{}
\bbl@beforestart
\catcode `"\active 
\catcode `<\active 
\catcode `>\active 
\@nameuse{es@quoting}
\providecommand\HyperFirstAtBeginDocument{\AtBeginDocument}
\HyperFirstAtBeginDocument{\ifx\hyper@anchor\@undefined
\global\let\oldcontentsline\contentsline
\gdef\contentsline#1#2#3#4{\oldcontentsline{#1}{#2}{#3}}
\global\let\oldnewlabel\newlabel
\gdef\newlabel#1#2{\newlabelxx{#1}#2}
\gdef\newlabelxx#1#2#3#4#5#6{\oldnewlabel{#1}{{#2}{#3}}}
\AtEndDocument{\ifx\hyper@anchor\@undefined
\let\contentsline\oldcontentsline
\let\newlabel\oldnewlabel
\fi}
\fi}
\global\let\hyper@last\relax 
\gdef\HyperFirstAtBeginDocument#1{#1}
\providecommand\HyField@AuxAddToFields[1]{}
\providecommand\HyField@AuxAddToCoFields[2]{}
\babel@aux{spanish}{}
\citation{KhanAcademy2019}
\citation{KhanAcademy2019}
\citation{Editor-in-Chief}
\@writefile{toc}{\contentsline {section}{\numberline {1}Proponente y director}{4}{section.1}\protected@file@percent }
\@writefile{toc}{\contentsline {section}{\numberline {2}Organización usuaria}{4}{section.2}\protected@file@percent }
\@writefile{toc}{\contentsline {section}{\numberline {3}Glosario}{4}{section.3}\protected@file@percent }
\citation{Palnitkar2003}
\citation{Perry2002}
\@writefile{toc}{\contentsline {section}{\numberline {4}Área del proyecto}{5}{section.4}\protected@file@percent }
\@writefile{toc}{\contentsline {section}{\numberline {5}Modalidad}{5}{section.5}\protected@file@percent }
\@writefile{toc}{\contentsline {section}{\numberline {6}Título}{5}{section.6}\protected@file@percent }
\@writefile{toc}{\contentsline {section}{\numberline {7}Tema}{5}{section.7}\protected@file@percent }
\citation{CarlBurch2014}
\citation{logigC}
\citation{GartonJames2005}
\citation{Borrell2010}
\citation{Labcenter2019}
\citation{Labcenter2019}
\citation{Icestudio}
\@writefile{lot}{\contentsline {table}{\numberline {1}{\ignorespaces Porcentajes de desarrollo de la aplicación [Fuente: propia].}}{6}{table.1}\protected@file@percent }
\newlabel{tabla1}{{1}{6}{Porcentajes de desarrollo de la aplicación [Fuente: propia]}{table.1}{}}
\@writefile{toc}{\contentsline {section}{\numberline {8}Antecedentes}{6}{section.8}\protected@file@percent }
\@writefile{toc}{\contentsline {subsection}{\numberline {8.1}Palabras clave}{6}{subsection.8.1}\protected@file@percent }
\@writefile{toc}{\contentsline {subsection}{\numberline {8.2}Herramientas de búsqueda}{6}{subsection.8.2}\protected@file@percent }
\@writefile{toc}{\contentsline {subsection}{\numberline {8.3}Estado del arte}{6}{subsection.8.3}\protected@file@percent }
\citation{Hollock2010}
\@writefile{toc}{\contentsline {section}{\numberline {9}Descripción del problema}{8}{section.9}\protected@file@percent }
\@writefile{toc}{\contentsline {section}{\numberline {10}Justificación}{8}{section.10}\protected@file@percent }
\citation{nuevoFinal}
\citation{Leopoldo2010}
\citation{nuevoFinal}
\@writefile{toc}{\contentsline {section}{\numberline {11}Objetivos}{9}{section.11}\protected@file@percent }
\@writefile{toc}{\contentsline {subsection}{\numberline {11.1}Objetivo general}{9}{subsection.11.1}\protected@file@percent }
\@writefile{toc}{\contentsline {subsection}{\numberline {11.2}Objetivos específicos}{9}{subsection.11.2}\protected@file@percent }
\@writefile{toc}{\contentsline {section}{\numberline {12}Alcance y delimitación}{9}{section.12}\protected@file@percent }
\@writefile{toc}{\contentsline {section}{\numberline {13}Marco teórico}{9}{section.13}\protected@file@percent }
\@writefile{toc}{\contentsline {subsection}{\numberline {13.1}Sistema digital}{9}{subsection.13.1}\protected@file@percent }
\citation{Martin-Del-Brio1999}
\citation{SainzCatedratico2000}
\citation{Martin-Del-Brio1999}
\citation{SainzCatedratico2000}
\citation{Castano2001}
\citation{Castano2001}
\citation{Castano2001}
\@writefile{toc}{\contentsline {subsection}{\numberline {13.2}Microprocesador}{10}{subsection.13.2}\protected@file@percent }
\citation{Gonzalez}
\citation{Maxinez}
\citation{Maxinez}
\citation{Maxinez}
\@writefile{lof}{\contentsline {figure}{\numberline {1}{\ignorespaces Esquema básico de un microprocesador (8085) \cite  {Castano2001}.}}{11}{figure.1}\protected@file@percent }
\newlabel{FiguraMicro}{{1}{11}{Esquema básico de un microprocesador (8085) \cite {Castano2001}}{figure.1}{}}
\@writefile{toc}{\contentsline {subsection}{\numberline {13.3}VHDL y verilog}{11}{subsection.13.3}\protected@file@percent }
\citation{Chu2010}
\citation{Chu2010}
\@writefile{lof}{\contentsline {figure}{\numberline {2}{\ignorespaces Estructura de código en VHDL \cite  {Maxinez}.}}{12}{figure.2}\protected@file@percent }
\newlabel{VHDL}{{2}{12}{Estructura de código en VHDL \cite {Maxinez}}{figure.2}{}}
\@writefile{toc}{\contentsline {subsection}{\numberline {13.4}FPGA}{12}{subsection.13.4}\protected@file@percent }
\citation{FundacionUniversitariaCatolicadelNorte.2007}
\citation{CervantesOjeda2012}
\@writefile{lof}{\contentsline {figure}{\numberline {3}{\ignorespaces Flujo de desarrollo en un FPGA \cite  {Chu2010}.}}{13}{figure.3}\protected@file@percent }
\newlabel{IMAGENFLOW}{{3}{13}{Flujo de desarrollo en un FPGA \cite {Chu2010}}{figure.3}{}}
\@writefile{toc}{\contentsline {subsection}{\numberline {13.5}Simulador}{13}{subsection.13.5}\protected@file@percent }
\@writefile{toc}{\contentsline {section}{\numberline {14}Metodología}{13}{section.14}\protected@file@percent }
\citation{CervantesOjeda2012}
\@writefile{lof}{\contentsline {figure}{\numberline {4}{\ignorespaces Esquema del modelo en V [fuente propia].}}{14}{figure.4}\protected@file@percent }
\newlabel{ModeloV}{{4}{14}{Esquema del modelo en V [fuente propia]}{figure.4}{}}
\@writefile{toc}{\contentsline {section}{\numberline {15}Presupuesto y recursos necesarios}{15}{section.15}\protected@file@percent }
\@writefile{lot}{\contentsline {table}{\numberline {2}{\ignorespaces Tabla de presupuestos y recursos necesarios [Fuente: propia].}}{15}{table.2}\protected@file@percent }
\newlabel{tabla_recursos}{{2}{15}{Tabla de presupuestos y recursos necesarios [Fuente: propia]}{table.2}{}}
\@writefile{toc}{\contentsline {section}{\numberline {16}Cronograma}{16}{section.16}\protected@file@percent }
\@writefile{lot}{\contentsline {table}{\numberline {3}{\ignorespaces Tabla de cronograma separada por semanas [Fuente: propia].}}{16}{table.3}\protected@file@percent }
\newlabel{tabla_cronograma}{{3}{16}{Tabla de cronograma separada por semanas [Fuente: propia]}{table.3}{}}
\bibstyle{IEEEtran}
\bibdata{/home/ciro/Documents/Bibliografias/Mendeley/AnteproyectoGrado.bib}
\bibcite{KhanAcademy2019}{1}
\bibcite{Editor-in-Chief}{2}
\bibcite{Palnitkar2003}{3}
\bibcite{Perry2002}{4}
\bibcite{CarlBurch2014}{5}
\bibcite{logigC}{6}
\bibcite{GartonJames2005}{7}
\bibcite{Borrell2010}{8}
\bibcite{Labcenter2019}{9}
\bibcite{Icestudio}{10}
\bibcite{Hollock2010}{11}
\bibcite{nuevoFinal}{12}
\bibcite{Leopoldo2010}{13}
\bibcite{Martin-Del-Brio1999}{14}
\bibcite{SainzCatedratico2000}{15}
\bibcite{Castano2001}{16}
\bibcite{Gonzalez}{17}
\bibcite{Maxinez}{18}
\bibcite{Chu2010}{19}
\bibcite{FundacionUniversitariaCatolicadelNorte.2007}{20}
\bibcite{CervantesOjeda2012}{21}
