\BOOKMARK [1][-]{section.1}{Proponente y director}{}% 1
\BOOKMARK [1][-]{section.2}{Organizaci\363n usuaria}{}% 2
\BOOKMARK [1][-]{section.3}{Glosario}{}% 3
\BOOKMARK [1][-]{section.4}{\301rea del proyecto}{}% 4
\BOOKMARK [1][-]{section.5}{Modalidad}{}% 5
\BOOKMARK [1][-]{section.6}{T\355tulo}{}% 6
\BOOKMARK [1][-]{section.7}{Tema}{}% 7
\BOOKMARK [1][-]{section.8}{Antecedentes}{}% 8
\BOOKMARK [2][-]{subsection.8.1}{Palabras clave}{section.8}% 9
\BOOKMARK [2][-]{subsection.8.2}{Herramientas de b\372squeda}{section.8}% 10
\BOOKMARK [2][-]{subsection.8.3}{Estado del arte}{section.8}% 11
\BOOKMARK [1][-]{section.9}{Descripci\363n del problema}{}% 12
\BOOKMARK [1][-]{section.10}{Justificaci\363n}{}% 13
\BOOKMARK [1][-]{section.11}{Objetivos}{}% 14
\BOOKMARK [2][-]{subsection.11.1}{Objetivo general}{section.11}% 15
\BOOKMARK [2][-]{subsection.11.2}{Objetivos espec\355ficos}{section.11}% 16
\BOOKMARK [1][-]{section.12}{Alcance y delimitaci\363n}{}% 17
\BOOKMARK [1][-]{section.13}{Marco te\363rico}{}% 18
\BOOKMARK [2][-]{subsection.13.1}{Sistema digital}{section.13}% 19
\BOOKMARK [2][-]{subsection.13.2}{Microprocesador}{section.13}% 20
\BOOKMARK [2][-]{subsection.13.3}{VHDL y verilog}{section.13}% 21
\BOOKMARK [2][-]{subsection.13.4}{FPGA}{section.13}% 22
\BOOKMARK [2][-]{subsection.13.5}{Simulador}{section.13}% 23
\BOOKMARK [1][-]{section.14}{Metodolog\355a}{}% 24
\BOOKMARK [1][-]{section.15}{Presupuesto y recursos necesarios}{}% 25
\BOOKMARK [1][-]{section.16}{Cronograma}{}% 26
