<?xml version="1.0" encoding="UTF-8" standalone="no"?>
<!-- Created with Inkscape (http://www.inkscape.org/) -->

<svg
   xmlns:dc="http://purl.org/dc/elements/1.1/"
   xmlns:cc="http://creativecommons.org/ns#"
   xmlns:rdf="http://www.w3.org/1999/02/22-rdf-syntax-ns#"
   xmlns:svg="http://www.w3.org/2000/svg"
   xmlns="http://www.w3.org/2000/svg"
   xmlns:xlink="http://www.w3.org/1999/xlink"
   xmlns:sodipodi="http://sodipodi.sourceforge.net/DTD/sodipodi-0.dtd"
   xmlns:inkscape="http://www.inkscape.org/namespaces/inkscape"
   width="71.454773mm"
   height="60.848389mm"
   viewBox="0 0 71.454773 60.848389"
   version="1.1"
   id="svg985"
   inkscape:version="0.92.4 5da689c313, 2019-01-14"
   sodipodi:docname="and.svg">
  <defs
     id="defs979">
    <clipPath
       clipPathUnits="userSpaceOnUse"
       id="clipPath108">
      <use
         x="0"
         y="0"
         xlink:href="#g104"
         id="use110"
         width="100%"
         height="100%" />
    </clipPath>
  </defs>
  <sodipodi:namedview
     id="base"
     pagecolor="#ffffff"
     bordercolor="#666666"
     borderopacity="1.0"
     inkscape:pageopacity="0.0"
     inkscape:pageshadow="2"
     inkscape:zoom="0.35"
     inkscape:cx="-307.82452"
     inkscape:cy="-122.15378"
     inkscape:document-units="mm"
     inkscape:current-layer="layer1"
     showgrid="false"
     fit-margin-top="0"
     fit-margin-left="0"
     fit-margin-right="0"
     fit-margin-bottom="0"
     inkscape:window-width="1366"
     inkscape:window-height="685"
     inkscape:window-x="0"
     inkscape:window-y="0"
     inkscape:window-maximized="1" />
  <metadata
     id="metadata982">
    <rdf:RDF>
      <cc:Work
         rdf:about="">
        <dc:format>image/svg+xml</dc:format>
        <dc:type
           rdf:resource="http://purl.org/dc/dcmitype/StillImage" />
        <dc:title></dc:title>
      </cc:Work>
    </rdf:RDF>
  </metadata>
  <g
     inkscape:label="Layer 1"
     inkscape:groupmode="layer"
     id="layer1"
     transform="translate(-49.695237,-55.66509)">
    <g
       id="g106"
       clip-path="url(#clipPath108)"
       transform="translate(-61.815263,-62.29361)">
      <g
         inkscape:label="Clip"
         id="g104">
        <path
           sodipodi:nodetypes="cczccc"
           inkscape:connector-curvature="0"
           id="rect1910"
           d="m 111.51172,117.95946 h 48.98114 c 0,0 22.24094,11.37806 22.47068,31.81243 0.22974,20.43437 -22.47068,29.0352 -22.47068,29.0352 h -48.98114 z"
           style="fill:#333333;fill-opacity:1;stroke:none;stroke-width:1.99953902" />
        <path
           sodipodi:nodetypes="ccccc"
           inkscape:connector-curvature="0"
           id="path5616"
           d="m 111.5105,117.9587 v 60.8375 l 2.07153,5.4e-4 -0.7926,-60.83358 z"
           style="fill:#0e010b;fill-opacity:1;stroke:none;stroke-width:1.99953902px;stroke-linecap:butt;stroke-linejoin:miter;stroke-opacity:1" />
        <path
           sodipodi:nodetypes="cccccccc"
           inkscape:connector-curvature="0"
           id="path5618"
           d="m 115.1727,119.87826 v 13.34358 l 3.44629,-0.0884 v 0 l -0.0884,-9.80887 22.80843,-0.25013 -2.47435,-3.26959 z"
           style="fill:#dbdbe3;fill-opacity:0.31372549;stroke:none;stroke-width:1.99953902px;stroke-linecap:butt;stroke-linejoin:miter;stroke-opacity:1" />
      </g>
    </g>
  </g>
</svg>
