<?xml version="1.0" encoding="UTF-8" standalone="no"?>
<!-- Created with Inkscape (http://www.inkscape.org/) -->

<svg
   xmlns:dc="http://purl.org/dc/elements/1.1/"
   xmlns:cc="http://creativecommons.org/ns#"
   xmlns:rdf="http://www.w3.org/1999/02/22-rdf-syntax-ns#"
   xmlns:svg="http://www.w3.org/2000/svg"
   xmlns="http://www.w3.org/2000/svg"
   xmlns:xlink="http://www.w3.org/1999/xlink"
   xmlns:sodipodi="http://sodipodi.sourceforge.net/DTD/sodipodi-0.dtd"
   xmlns:inkscape="http://www.inkscape.org/namespaces/inkscape"
   width="55.562496mm"
   height="22.225mm"
   viewBox="0 0 55.562496 22.225"
   version="1.1"
   id="svg993"
   inkscape:version="0.92.4 5da689c313, 2019-01-14"
   sodipodi:docname="input.svg">
  <defs
     id="defs987">
    <clipPath
       clipPathUnits="userSpaceOnUse"
       id="clipPath130">
      <use
         x="0"
         y="0"
         xlink:href="#g126"
         id="use132"
         width="100%"
         height="100%" />
    </clipPath>
  </defs>
  <sodipodi:namedview
     id="base"
     pagecolor="#ffffff"
     bordercolor="#666666"
     borderopacity="1.0"
     inkscape:pageopacity="0.0"
     inkscape:pageshadow="2"
     inkscape:zoom="1.979899"
     inkscape:cx="74.249689"
     inkscape:cy="26.237366"
     inkscape:document-units="mm"
     inkscape:current-layer="layer1"
     showgrid="false"
     fit-margin-top="0"
     fit-margin-left="0"
     fit-margin-right="0"
     fit-margin-bottom="0"
     inkscape:window-width="1366"
     inkscape:window-height="706"
     inkscape:window-x="0"
     inkscape:window-y="25"
     inkscape:window-maximized="1" />
  <metadata
     id="metadata990">
    <rdf:RDF>
      <cc:Work
         rdf:about="">
        <dc:format>image/svg+xml</dc:format>
        <dc:type
           rdf:resource="http://purl.org/dc/dcmitype/StillImage" />
        <dc:title />
      </cc:Work>
    </rdf:RDF>
  </metadata>
  <g
     inkscape:label="Layer 1"
     inkscape:groupmode="layer"
     id="layer1"
     transform="translate(-29.034406,-26.721447)">
    <g
       id="g35">
      <g
         clip-path="url(#clipPath130)"
         id="g128"
         transform="matrix(1.0043102,0,0,1.3528231,-76.951383,-39.727917)">
        <g
           id="g126"
           inkscape:label="Clip">
          <path
             sodipodi:nodetypes="csccssssssc"
             inkscape:connector-curvature="0"
             id="rect989"
             d="m 106.55413,49.119034 h 46.50811 c -0.0763,0 0,0 0.0206,0.0744 l 7.77213,8.62252 -7.49653,7.42414 c -0.17778,0.17606 -0.21626,0.30539 -0.29626,0.30539 h -46.50811 c -0.56682,0 -1.02314,-0.45632 -1.02314,-1.02314 v -14.38009 c 0,-0.56682 0.45632,-1.02314 1.02314,-1.02314 z"
             style="fill:#333333;fill-opacity:1;stroke:none;stroke-width:0.26458332" />
          <path
             sodipodi:nodetypes="sccccss"
             inkscape:connector-curvature="0"
             id="path994"
             d="m 105.81521,64.300604 c 15.80209,0.0653 47.07259,0.23862 47.07259,0.23862 l 7.59926,-7.13672 0.3679,0.41345 -7.78346,7.72559 c 0,0 -30.94557,0.007 -46.49587,0.006 -0.98792,-5e-5 -1.29141,-1.24959 -0.76042,-1.2474 z"
             style="fill:#0e000b;fill-opacity:1;stroke:none;stroke-width:0.26458332px;stroke-linecap:butt;stroke-linejoin:miter;stroke-opacity:1" />
          <path
             sodipodi:nodetypes="cccccccccc"
             inkscape:connector-curvature="0"
             id="path1001"
             d="m 106.34672,55.445492 0.017,-4.707178 v -0.0165 l 1.05597,-0.7276 15.7687,0.02127 0.0236,0.926039 -15.02691,-0.04725 -0.75359,0.727609 -0.0496,3.81388 z"
             style="fill:#dbdbe3;fill-opacity:0.31372549;stroke:none;stroke-width:0.26458332px;stroke-linecap:butt;stroke-linejoin:miter;stroke-opacity:1" />
        </g>
      </g>
      <text
         id="text66"
         y="35.983875"
         x="37.319763"
         style="font-style:normal;font-weight:normal;font-size:10.58333302px;line-height:1.25;font-family:sans-serif;letter-spacing:0px;word-spacing:0px;fill:#000000;fill-opacity:1;stroke:none;stroke-width:0.26458332"
         xml:space="preserve"><tspan
           style="stroke-width:0.26458332"
           y="45.347645"
           x="37.319763"
           id="tspan64"
           sodipodi:role="line" /></text>
      <text
         id="text24"
         y="43.946247"
         x="35.451275"
         style="font-style:normal;font-weight:normal;font-size:8.29193974px;line-height:1.25;font-family:sans-serif;letter-spacing:0px;word-spacing:0px;fill:#000000;fill-opacity:1;stroke:none;stroke-width:0.20729849"
         xml:space="preserve"><tspan
           style="font-size:16.58387947px;fill:#ffffff;stroke-width:0.20729849"
           y="43.946247"
           x="35.451275"
           id="tspan22"
           sodipodi:role="line">In</tspan></text>
    </g>
  </g>
</svg>
