<?xml version="1.0" encoding="UTF-8" standalone="no"?>
<!-- Created with Inkscape (http://www.inkscape.org/) -->

<svg
   xmlns:dc="http://purl.org/dc/elements/1.1/"
   xmlns:cc="http://creativecommons.org/ns#"
   xmlns:rdf="http://www.w3.org/1999/02/22-rdf-syntax-ns#"
   xmlns:svg="http://www.w3.org/2000/svg"
   xmlns="http://www.w3.org/2000/svg"
   xmlns:sodipodi="http://sodipodi.sourceforge.net/DTD/sodipodi-0.dtd"
   xmlns:inkscape="http://www.inkscape.org/namespaces/inkscape"
   width="86.081375mm"
   height="118.54531mm"
   viewBox="0 0 86.081375 118.54531"
   version="1.1"
   id="svg63"
   inkscape:version="0.92.4 5da689c313, 2019-01-14"
   sodipodi:docname="sm.svg">
  <defs
     id="defs57">
    <inkscape:path-effect
       effect="powerstroke"
       id="path-effect1606"
       is_visible="true"
       offset_points="0,0.13229166"
       sort_points="true"
       interpolator_type="CubicBezierJohan"
       interpolator_beta="0.2"
       start_linecap_type="zerowidth"
       linejoin_type="extrp_arc"
       miter_limit="4"
       end_linecap_type="zerowidth" />
    <inkscape:path-effect
       effect="bspline"
       id="path-effect1604"
       is_visible="true"
       weight="33.333333"
       steps="2"
       helper_size="0"
       apply_no_weight="true"
       apply_with_weight="true"
       only_selected="false" />
    <inkscape:path-effect
       effect="powerstroke"
       id="path-effect1581"
       is_visible="true"
       offset_points="0,0.13229166"
       sort_points="true"
       interpolator_type="CubicBezierJohan"
       interpolator_beta="0.2"
       start_linecap_type="zerowidth"
       linejoin_type="extrp_arc"
       miter_limit="4"
       end_linecap_type="zerowidth" />
    <inkscape:path-effect
       effect="bspline"
       id="path-effect1579"
       is_visible="true"
       weight="33.333333"
       steps="2"
       helper_size="0"
       apply_no_weight="true"
       apply_with_weight="true"
       only_selected="false" />
    <marker
       inkscape:stockid="Arrow1Lend"
       orient="auto"
       refY="0"
       refX="0"
       id="Arrow1Lend"
       style="overflow:visible"
       inkscape:isstock="true">
      <path
         id="path936"
         d="M 0,0 5,-5 -12.5,0 5,5 Z"
         style="fill:#ffffff;fill-opacity:1;fill-rule:evenodd;stroke:none;stroke-width:1.00000003pt;stroke-opacity:1"
         transform="matrix(-0.8,0,0,-0.8,-10,0)"
         inkscape:connector-curvature="0" />
    </marker>
    <marker
       inkscape:stockid="Arrow1Lstart"
       orient="auto"
       refY="0"
       refX="0"
       id="Arrow1Lstart"
       style="overflow:visible"
       inkscape:isstock="true">
      <path
         id="path933"
         d="M 0,0 5,-5 -12.5,0 5,5 Z"
         style="fill:#ffffff;fill-opacity:1;fill-rule:evenodd;stroke:none;stroke-width:1.00000003pt;stroke-opacity:1"
         transform="matrix(0.8,0,0,0.8,10,0)"
         inkscape:connector-curvature="0" />
    </marker>
    <inkscape:path-effect
       effect="powerstroke"
       id="path-effect931"
       is_visible="true"
       offset_points="0,0.13229166"
       sort_points="true"
       interpolator_type="CubicBezierJohan"
       interpolator_beta="0.2"
       start_linecap_type="zerowidth"
       linejoin_type="extrp_arc"
       miter_limit="4"
       end_linecap_type="zerowidth" />
    <inkscape:path-effect
       effect="bspline"
       id="path-effect929"
       is_visible="true"
       weight="33.333333"
       steps="2"
       helper_size="0"
       apply_no_weight="true"
       apply_with_weight="true"
       only_selected="false" />
    <inkscape:path-effect
       effect="bspline"
       id="path-effect120"
       is_visible="true"
       weight="33.333333"
       steps="2"
       helper_size="0"
       apply_no_weight="true"
       apply_with_weight="true"
       only_selected="false" />
    <inkscape:path-effect
       effect="bspline"
       id="path-effect1604-7"
       is_visible="true"
       weight="33.333333"
       steps="2"
       helper_size="0"
       apply_no_weight="true"
       apply_with_weight="true"
       only_selected="false" />
    <inkscape:path-effect
       effect="powerstroke"
       id="path-effect1606-5"
       is_visible="true"
       offset_points="0,0.13229166"
       sort_points="true"
       interpolator_type="CubicBezierJohan"
       interpolator_beta="0.2"
       start_linecap_type="zerowidth"
       linejoin_type="extrp_arc"
       miter_limit="4"
       end_linecap_type="zerowidth" />
    <clipPath
       clipPathUnits="userSpaceOnUse"
       id="clipPath1639">
      <g
         inkscape:label="Clip"
         id="use1641">
        <rect
           ry="2.4054258"
           y="54.421371"
           x="27.160719"
           height="78.45488"
           width="86.081375"
           id="rect866"
           style="fill:#333333;fill-opacity:1;stroke:none;stroke-width:0.21742575" />
        <circle
           r="9.0871639"
           cy="75.700829"
           cx="56.661137"
           id="circle868"
           style="opacity:1;fill:#ffffff;fill-opacity:1;stroke-width:0.26458332;paint-order:markers fill stroke" />
        <circle
           r="9.0871639"
           cy="87.995232"
           cx="90.069832"
           id="circle870"
           style="opacity:1;fill:#ffffff;fill-opacity:1;stroke-width:0.26458332;paint-order:markers fill stroke" />
        <circle
           r="9.0871639"
           cy="110.98041"
           cx="66.015572"
           id="circle872"
           style="opacity:1;fill:#ffffff;fill-opacity:1;stroke-width:0.26458332;paint-order:markers fill stroke" />
        <path
           transform="matrix(0.57414854,0,0,0.80139549,31.496341,10.421291)"
           sodipodi:nodetypes="czc"
           inkscape:original-d="m 57.730217,77.037178 c 0,0 13.499063,0.83421 20.248198,1.251712 4.387096,3.502451 13.160493,10.508146 13.160493,10.508146"
           inkscape:path-effect="#path-effect1604;#path-effect1606"
           inkscape:connector-curvature="0"
           id="path874"
           d="m 57.730217,77.037178 c 0,0 -0.0082,0.13204 -0.0082,0.13204 1.876519,0.116003 6.382648,0.359428 9.971603,0.792028 3.042904,0.36678 6.190798,0.930375 9.08165,1.932797 6.291215,2.18152 12.035225,7.043876 14.3636,8.902993 -2.309351,-1.843928 -8.042774,-6.785346 -14.319674,-9.027779 -2.895202,-1.034316 -6.050736,-1.627697 -9.099361,-2.018733 -3.64253,-0.467214 -8.059589,-0.726576 -9.981494,-0.845386 0,0 -0.0082,0.13204 -0.0082,0.13204 z"
           style="fill:#000000;fill-rule:nonzero;stroke:#ffffff;stroke-width:1.42875004;stroke-linecap:butt;stroke-linejoin:miter;stroke-miterlimit:4;stroke-dasharray:none;stroke-opacity:1" />
        <path
           transform="matrix(-0.20682257,0.53560336,-0.7475942,-0.28868257,159.289,87.613663)"
           sodipodi:nodetypes="czc"
           inkscape:original-d="m 57.730217,77.037178 c 0,0 13.499063,0.83421 20.248198,1.251712 4.387096,3.502451 13.160493,10.508146 13.160493,10.508146"
           inkscape:path-effect="#path-effect1604;#path-effect1606"
           inkscape:connector-curvature="0"
           id="path876"
           d="m 57.730217,77.037178 c 0,0 -0.0082,0.13204 -0.0082,0.13204 1.876519,0.116003 6.382648,0.359428 9.971603,0.792028 3.042904,0.36678 6.190798,0.930375 9.08165,1.932797 6.291215,2.18152 12.035225,7.043876 14.3636,8.902993 -2.309351,-1.843928 -8.042774,-6.785346 -14.319674,-9.027779 -2.895202,-1.034316 -6.050736,-1.627697 -9.099361,-2.018733 -3.64253,-0.467214 -8.059589,-0.726576 -9.981494,-0.845386 0,0 -0.0082,0.13204 -0.0082,0.13204 z"
           style="fill:#000000;fill-rule:nonzero;stroke:#ffffff;stroke-width:1.42875004;stroke-linecap:butt;stroke-linejoin:miter;stroke-miterlimit:4;stroke-dasharray:none;stroke-opacity:1" />
      </g>
    </clipPath>
    <inkscape:path-effect
       effect="bspline"
       id="path-effect1604-5"
       is_visible="true"
       weight="33.333333"
       steps="2"
       helper_size="0"
       apply_no_weight="true"
       apply_with_weight="true"
       only_selected="false" />
    <inkscape:path-effect
       effect="powerstroke"
       id="path-effect1606-3"
       is_visible="true"
       offset_points="0,0.13229166"
       sort_points="true"
       interpolator_type="CubicBezierJohan"
       interpolator_beta="0.2"
       start_linecap_type="zerowidth"
       linejoin_type="extrp_arc"
       miter_limit="4"
       end_linecap_type="zerowidth" />
    <inkscape:path-effect
       effect="bspline"
       id="path-effect1604-6"
       is_visible="true"
       weight="33.333333"
       steps="2"
       helper_size="0"
       apply_no_weight="true"
       apply_with_weight="true"
       only_selected="false" />
    <inkscape:path-effect
       effect="powerstroke"
       id="path-effect1606-2"
       is_visible="true"
       offset_points="0,0.13229166"
       sort_points="true"
       interpolator_type="CubicBezierJohan"
       interpolator_beta="0.2"
       start_linecap_type="zerowidth"
       linejoin_type="extrp_arc"
       miter_limit="4"
       end_linecap_type="zerowidth" />
  </defs>
  <sodipodi:namedview
     id="base"
     pagecolor="#ffffff"
     bordercolor="#666666"
     borderopacity="1.0"
     inkscape:pageopacity="0.0"
     inkscape:pageshadow="2"
     inkscape:zoom="0.49497475"
     inkscape:cx="-358.13066"
     inkscape:cy="309.38966"
     inkscape:document-units="mm"
     inkscape:current-layer="layer1"
     showgrid="false"
     inkscape:window-width="1366"
     inkscape:window-height="706"
     inkscape:window-x="0"
     inkscape:window-y="25"
     inkscape:window-maximized="1"
     fit-margin-top="0"
     fit-margin-left="0"
     fit-margin-right="0"
     fit-margin-bottom="0" />
  <metadata
     id="metadata60">
    <rdf:RDF>
      <cc:Work
         rdf:about="">
        <dc:format>image/svg+xml</dc:format>
        <dc:type
           rdf:resource="http://purl.org/dc/dcmitype/StillImage" />
        <dc:title></dc:title>
      </cc:Work>
    </rdf:RDF>
  </metadata>
  <g
     inkscape:label="Layer 1"
     inkscape:groupmode="layer"
     id="layer1"
     transform="translate(-18.089291,-40.62524)">
    <rect
       ry="3.634598"
       y="40.62524"
       x="18.089291"
       height="118.54531"
       width="86.081375"
       id="rect828"
       style="fill:#333333;fill-opacity:1;stroke:none;stroke-width:0.26726568" />
    <circle
       cy="61.904697"
       cx="47.589706"
       id="path73"
       style="opacity:1;fill:#ffffff;fill-opacity:1;stroke-width:0.26458332;paint-order:markers fill stroke"
       r="9.0871639" />
    <circle
       cy="74.199104"
       cx="80.998405"
       id="path73-3"
       style="opacity:1;fill:#ffffff;fill-opacity:1;stroke-width:0.26458332;paint-order:markers fill stroke"
       r="9.0871639" />
    <circle
       cy="97.18428"
       cx="56.944141"
       id="path73-6"
       style="opacity:1;fill:#ffffff;fill-opacity:1;stroke-width:0.26458332;paint-order:markers fill stroke"
       r="9.0871639" />
    <path
       transform="matrix(0.57414854,0,0,0.80139549,22.424912,-3.37484)"
       sodipodi:nodetypes="czc"
       inkscape:original-d="m 57.730217,77.037178 c 0,0 13.499063,0.83421 20.248198,1.251712 4.387096,3.502451 13.160493,10.508146 13.160493,10.508146"
       inkscape:path-effect="#path-effect1604;#path-effect1606"
       inkscape:connector-curvature="0"
       id="path1602"
       d="m 57.730217,77.037178 c 0,0 -0.0082,0.13204 -0.0082,0.13204 1.876519,0.116003 6.382648,0.359428 9.971603,0.792028 3.042904,0.36678 6.190798,0.930375 9.08165,1.932797 6.291215,2.18152 12.035225,7.043876 14.3636,8.902993 -2.309351,-1.843928 -8.042774,-6.785346 -14.319674,-9.027779 -2.895202,-1.034316 -6.050736,-1.627697 -9.099361,-2.018733 -3.64253,-0.467214 -8.059589,-0.726576 -9.981494,-0.845386 0,0 -0.0082,0.13204 -0.0082,0.13204 z"
       style="fill:#000000;fill-rule:nonzero;stroke:#ffffff;stroke-width:1.42875004;stroke-linecap:butt;stroke-linejoin:miter;stroke-miterlimit:4;stroke-dasharray:none;stroke-opacity:1" />
    <path
       transform="matrix(-0.20682257,0.53560336,-0.7475942,-0.28868257,150.21757,73.817532)"
       sodipodi:nodetypes="czc"
       inkscape:original-d="m 57.730217,77.037178 c 0,0 13.499063,0.83421 20.248198,1.251712 4.387096,3.502451 13.160493,10.508146 13.160493,10.508146"
       inkscape:path-effect="#path-effect1604;#path-effect1606"
       inkscape:connector-curvature="0"
       id="path1602-3"
       d="m 57.730217,77.037178 c 0,0 -0.0082,0.13204 -0.0082,0.13204 1.876519,0.116003 6.382648,0.359428 9.971603,0.792028 3.042904,0.36678 6.190798,0.930375 9.08165,1.932797 6.291215,2.18152 12.035225,7.043876 14.3636,8.902993 -2.309351,-1.843928 -8.042774,-6.785346 -14.319674,-9.027779 -2.895202,-1.034316 -6.050736,-1.627697 -9.099361,-2.018733 -3.64253,-0.467214 -8.059589,-0.726576 -9.981494,-0.845386 0,0 -0.0082,0.13204 -0.0082,0.13204 z"
       style="fill:#000000;fill-rule:nonzero;stroke:#ffffff;stroke-width:1.42875004;stroke-linecap:butt;stroke-linejoin:miter;stroke-miterlimit:4;stroke-dasharray:none;stroke-opacity:1" />
    <circle
       cy="97.18428"
       cx="56.944141"
       id="path73-6-3"
       style="opacity:1;fill:#ffffff;fill-opacity:1;stroke-width:0.26458332;paint-order:markers fill stroke"
       r="0" />
    <circle
       cy="124.96004"
       cx="38.401775"
       id="path73-6-6"
       style="opacity:1;fill:#ffffff;fill-opacity:1;stroke-width:0.26458332;paint-order:markers fill stroke"
       r="9.0871639" />
    <circle
       cy="136.71992"
       cx="75.0177"
       id="path73-6-7"
       style="opacity:1;fill:#ffffff;fill-opacity:1;stroke-width:0.26458332;paint-order:markers fill stroke"
       r="9.0871639" />
    <path
       transform="matrix(-0.68344648,0,0,-0.90140164,106.93805,208.20492)"
       sodipodi:nodetypes="czc"
       inkscape:original-d="m 57.730217,77.037178 c 0,0 13.499063,0.83421 20.248198,1.251712 4.387096,3.502451 13.160493,10.508146 13.160493,10.508146"
       inkscape:path-effect="#path-effect1604;#path-effect1606"
       inkscape:connector-curvature="0"
       id="path1602-5"
       d="m 57.730217,77.037178 c 0,0 -0.0082,0.13204 -0.0082,0.13204 1.876519,0.116003 6.382648,0.359428 9.971603,0.792028 3.042904,0.36678 6.190798,0.930375 9.08165,1.932797 6.291215,2.18152 12.035225,7.043876 14.3636,8.902993 -2.309351,-1.843928 -8.042774,-6.785346 -14.319674,-9.027779 -2.895202,-1.034316 -6.050736,-1.627697 -9.099361,-2.018733 -3.64253,-0.467214 -8.059589,-0.726576 -9.981494,-0.845386 0,0 -0.0082,0.13204 -0.0082,0.13204 z"
       style="fill:#000000;fill-rule:nonzero;stroke:#ffffff;stroke-width:1.42875004;stroke-linecap:butt;stroke-linejoin:miter;stroke-miterlimit:4;stroke-dasharray:none;stroke-opacity:1" />
    <path
       transform="matrix(0.01255596,-0.57401122,0.80120382,0.01752559,-24.304428,149.29389)"
       sodipodi:nodetypes="czc"
       inkscape:original-d="m 57.730217,77.037178 c 0,0 13.499063,0.83421 20.248198,1.251712 4.387096,3.502451 13.160493,10.508146 13.160493,10.508146"
       inkscape:path-effect="#path-effect1604;#path-effect1606"
       inkscape:connector-curvature="0"
       id="path1602-9"
       d="m 57.730217,77.037178 c 0,0 -0.0082,0.13204 -0.0082,0.13204 1.876519,0.116003 6.382648,0.359428 9.971603,0.792028 3.042904,0.36678 6.190798,0.930375 9.08165,1.932797 6.291215,2.18152 12.035225,7.043876 14.3636,8.902993 -2.309351,-1.843928 -8.042774,-6.785346 -14.319674,-9.027779 -2.895202,-1.034316 -6.050736,-1.627697 -9.099361,-2.018733 -3.64253,-0.467214 -8.059589,-0.726576 -9.981494,-0.845386 0,0 -0.0082,0.13204 -0.0082,0.13204 z"
       style="fill:#000000;fill-rule:nonzero;stroke:#ffffff;stroke-width:1.42875004;stroke-linecap:butt;stroke-linejoin:miter;stroke-miterlimit:4;stroke-dasharray:none;stroke-opacity:1" />
  </g>
</svg>
