<?xml version="1.0" encoding="UTF-8" standalone="no"?>
<!-- Created with Inkscape (http://www.inkscape.org/) -->

<svg
   xmlns:dc="http://purl.org/dc/elements/1.1/"
   xmlns:cc="http://creativecommons.org/ns#"
   xmlns:rdf="http://www.w3.org/1999/02/22-rdf-syntax-ns#"
   xmlns:svg="http://www.w3.org/2000/svg"
   xmlns="http://www.w3.org/2000/svg"
   xmlns:sodipodi="http://sodipodi.sourceforge.net/DTD/sodipodi-0.dtd"
   xmlns:inkscape="http://www.inkscape.org/namespaces/inkscape"
   width="68.413696mm"
   height="68.413696mm"
   viewBox="0 0 68.413696 68.413696"
   version="1.1"
   id="svg8"
   inkscape:version="0.92.4 5da689c313, 2019-01-14"
   sodipodi:docname="sram.svg">
  <defs
     id="defs2" />
  <sodipodi:namedview
     id="base"
     pagecolor="#ffffff"
     bordercolor="#666666"
     borderopacity="1.0"
     inkscape:pageopacity="0.0"
     inkscape:pageshadow="2"
     inkscape:zoom="1.4"
     inkscape:cx="98.844563"
     inkscape:cy="136.91483"
     inkscape:document-units="mm"
     inkscape:current-layer="layer1"
     showgrid="false"
     inkscape:window-width="1366"
     inkscape:window-height="688"
     inkscape:window-x="0"
     inkscape:window-y="0"
     inkscape:window-maximized="1"
     fit-margin-top="0"
     fit-margin-left="0"
     fit-margin-right="0"
     fit-margin-bottom="0" />
  <metadata
     id="metadata5">
    <rdf:RDF>
      <cc:Work
         rdf:about="">
        <dc:format>image/svg+xml</dc:format>
        <dc:type
           rdf:resource="http://purl.org/dc/dcmitype/StillImage" />
        <dc:title></dc:title>
      </cc:Work>
    </rdf:RDF>
  </metadata>
  <g
     inkscape:label="Layer 1"
     inkscape:groupmode="layer"
     id="layer1"
     transform="translate(-46.113098,-42.244045)">
    <rect
       style="fill:#1a1a1a;fill-opacity:1;stroke:none;stroke-width:0.26458332;stroke-opacity:0.98039216"
       id="rect826"
       width="68.413696"
       height="68.413696"
       x="46.113098"
       y="42.244045" />
    <rect
       style="fill:#00ff00;fill-opacity:1;stroke:none;stroke-width:0.26458332;stroke-opacity:0.98039216"
       id="rect871"
       width="54.42857"
       height="27.214285"
       x="54.42857"
       y="61.898808" />
    <rect
       style="fill:#008000;fill-opacity:1;stroke:none;stroke-width:0.26458332;stroke-opacity:0.98039216"
       id="rect873"
       width="52.822178"
       height="25.702385"
       x="54.42857"
       y="61.898804" />
    <rect
       style="fill:#1a1a1a;fill-opacity:1;stroke:none;stroke-width:0.26458332;stroke-opacity:0.98039216"
       id="rect875"
       width="2.8348215"
       height="6.3311014"
       x="59.814732"
       y="82.78199" />
    <rect
       style="fill:#1a1a1a;fill-opacity:1;stroke:none;stroke-width:0.26458332;stroke-opacity:0.98039216"
       id="rect875-6"
       width="2.8348215"
       height="6.3311014"
       x="64.775673"
       y="82.829239" />
    <rect
       style="fill:#1a1a1a;fill-opacity:1;stroke:none;stroke-width:0.26458332;stroke-opacity:0.98039216"
       id="rect875-2"
       width="2.8348215"
       height="6.3311014"
       x="69.925591"
       y="82.876495" />
    <rect
       style="fill:#1a1a1a;fill-opacity:1;stroke:none;stroke-width:0.26458332;stroke-opacity:0.98039216"
       id="rect875-9"
       width="2.8348215"
       height="6.3311014"
       x="80.461685"
       y="82.829239" />
    <rect
       style="fill:#1a1a1a;fill-opacity:1;stroke:none;stroke-width:0.26458332;stroke-opacity:0.98039216"
       id="rect875-1"
       width="2.8348215"
       height="6.3311014"
       x="75.453491"
       y="82.781998" />
    <rect
       style="fill:#1a1a1a;fill-opacity:1;stroke:none;stroke-width:0.26458332;stroke-opacity:0.98039216"
       id="rect875-9-2"
       width="2.8348215"
       height="6.3311014"
       x="90.997765"
       y="82.78199" />
    <rect
       style="fill:#1a1a1a;fill-opacity:1;stroke:none;stroke-width:0.26458332;stroke-opacity:0.98039216"
       id="rect875-9-2-7"
       width="2.8348215"
       height="6.3311014"
       x="96.809151"
       y="82.781998" />
    <rect
       style="fill:#1a1a1a;fill-opacity:1;stroke:none;stroke-width:0.26458332;stroke-opacity:0.98039216"
       id="rect875-9-2-0"
       width="2.8348215"
       height="6.3311014"
       x="102.43155"
       y="82.923729" />
    <text
       xml:space="preserve"
       style="font-style:normal;font-weight:normal;font-size:10.58333302px;line-height:1.25;font-family:sans-serif;letter-spacing:0px;word-spacing:0px;fill:#1a1a1a;fill-opacity:1;stroke:none;stroke-width:0.26458332"
       x="68.035713"
       y="76.923363"
       id="text948"><tspan
         sodipodi:role="line"
         id="tspan946"
         x="68.035713"
         y="76.923363"
         style="fill:#1a1a1a;stroke-width:0.26458332">SRAM</tspan></text>
  </g>
</svg>
